…
``` r
#Using lexicon bing
subdat= dat[,c("V1", "Rating", "Reviews")]
subdat%>%
  group_by(V1)%>%
  unnest_tokens(output = word, input = Reviews)%>%
  inner_join(get_sentiments('bing'))%>%
  group_by(sentiment)
```

    ## # A tibble: 174,324 x 4
    ## # Groups:   sentiment [2]
    ##       V1 Rating word      sentiment
    ##    <int>  <dbl> <chr>     <chr>    
    ##  1     0    5   like      positive 
    ##  2     0    5   warm      positive 
    ##  3     0    5   welcome   positive 
    ##  4     1    4.5 great     positive 
    ##  5     1    4.5 perfect   positive 
    ##  6     2    4.5 delicious positive 
    ##  7     3    5   superb    positive 
    ##  8     3    5   fine      positive 
    ##  9     4    4.5 best      positive 
    ## 10     4    4.5 super     positive 
    ## # ... with 174,314 more rows
…
``` r
#Rating and emotions
subdat%>%
  group_by(V1)%>%
  unnest_tokens(output = word, input = Reviews)%>%
  inner_join(get_sentiments('nrc'))%>%
  group_by(V1,sentiment,Rating)%>%
  count()
```

    ## # A tibble: 175,678 x 4
    ## # Groups:   V1, sentiment, Rating [175,678]
    ##       V1 sentiment    Rating     n
    ##    <int> <chr>         <dbl> <int>
    ##  1     0 anger           4.5     1
    ##  2     0 anticipation    4.5     4
    ##  3     0 anticipation    5       8
    ##  4     0 disgust         4.5     1
    ##  5     0 fear            4.5     1
    ##  6     0 fear            5       3
    ##  7     0 joy             4.5     7
    ##  8     0 joy             5      22
    ##  9     0 negative        4.5     1
    ## 10     0 negative        5       1
    ## # ... with 175,668 more rows
…
``` r
#Sentiment mean, median, max and min 
subdat %>%
  select(City,Reviews)%>%
  group_by(City)%>%
  unnest_tokens(output=word,input=Reviews)%>%
  inner_join(get_sentiments('afinn'))%>%
  summarize(reviewMeanSentiment = mean(score), reviewMedianSentiment = median(score), reviewMaxSentiment = max(score),reviewMinSentiment = min(score))
```

    ## # A tibble: 31 x 5
    ##    City  reviewMeanSenti~ reviewMedianSen~ reviewMaxSentim~
    ##    <chr>            <dbl>            <dbl>            <dbl>
    ##  1 Amst~             2.52                3                5
    ##  2 Athe~             2.56                3                5
    ##  3 Barc~             2.39                3                5
    ##  4 Berl~             2.46                3                5
    ##  5 Brat~             2.26                3                5
    ##  6 Brus~             2.27                3                5
    ##  7 Buda~             2.34                3                5
    ##  8 Cope~             2.47                3                5
    ##  9 Dubl~             2.39                3                5
    ## 10 Edin~             2.39                3                5
    ## # ... with 21 more rows, and 1 more variable: reviewMinSentiment <dbl>
…
